{
  "src_folders": ["test/e2e"],

  "webdriver": {
    "start_process": true,
    "server_path": "node_modules/.bin/chromedriver",
    "port": 9515
  },

  "test_settings": {
    "default": {
      "desiredCapabilities": {
        "browserName": "chrome"
      }
    }
  }
}
